module code.soquee.net/shopdb

go 1.21

require (
	code.soquee.net/env v0.0.1
	code.soquee.net/login v0.0.1
	code.soquee.net/migration v0.1.0
	code.soquee.net/mux v0.0.4
	code.soquee.net/norm v0.1.0
	code.soquee.net/otp v0.0.4
	code.soquee.net/testlog v0.0.1
	code.soquee.net/tmpl v0.1.0
	github.com/99designs/gqlgen v0.17.40
	github.com/jackc/pgx/v5 v5.5.0
	github.com/prometheus/client_golang v1.17.0
	github.com/vektah/gqlparser/v2 v2.5.10
	golang.org/x/net v0.19.0
	golang.org/x/text v0.14.0
	mellium.im/cli v0.1.0
)

require (
	github.com/agnivade/levenshtein v1.1.1 // indirect
	github.com/beorn7/perks v1.0.1 // indirect
	github.com/cespare/xxhash/v2 v2.2.0 // indirect
	github.com/cpuguy83/go-md2man/v2 v2.0.2 // indirect
	github.com/golang/protobuf v1.5.3 // indirect
	github.com/google/uuid v1.3.0 // indirect
	github.com/gorilla/websocket v1.5.0 // indirect
	github.com/hashicorp/golang-lru/v2 v2.0.3 // indirect
	github.com/jackc/pgpassfile v1.0.0 // indirect
	github.com/jackc/pgservicefile v0.0.0-20221227161230-091c0ba34f0a // indirect
	github.com/jackc/puddle/v2 v2.2.1 // indirect
	github.com/kr/text v0.2.0 // indirect
	github.com/matttproud/golang_protobuf_extensions v1.0.4 // indirect
	github.com/mitchellh/mapstructure v1.5.0 // indirect
	github.com/prometheus/client_model v0.4.1-0.20230718164431-9a2bf3000d16 // indirect
	github.com/prometheus/common v0.44.0 // indirect
	github.com/prometheus/procfs v0.11.1 // indirect
	github.com/russross/blackfriday/v2 v2.1.0 // indirect
	github.com/sosodev/duration v1.1.0 // indirect
	github.com/urfave/cli/v2 v2.25.5 // indirect
	github.com/xrash/smetrics v0.0.0-20201216005158-039620a65673 // indirect
	golang.org/x/crypto v0.16.0 // indirect
	golang.org/x/mod v0.10.0 // indirect
	golang.org/x/sync v0.3.0 // indirect
	golang.org/x/sys v0.15.0 // indirect
	golang.org/x/tools v0.9.3 // indirect
	google.golang.org/protobuf v1.31.0 // indirect
	gopkg.in/yaml.v3 v3.0.1 // indirect
)
